<svg width="24" height="24" viewBox="0 0 24 24" fill="none" xmlns="http://www.w3.org/2000/svg">
<g id="Frame">
<path id="Vector" d="M16.7574 2.99666L9.29145 10.4626L9.29886 14.7097L13.537 14.7023L21 7.2393V19.9967C21 20.5489 20.5523 20.9967 20 20.9967H4C3.44772 20.9967 3 20.5489 3 19.9967V3.99666C3 3.44438 3.44772 2.99666 4 2.99666H16.7574ZM20.4853 2.09717L21.8995 3.51138L12.7071 12.7038L11.2954 12.7062L11.2929 11.2896L20.4853 2.09717Z"/>
</g>
</svg>
